^C:\USERS\EEJAREI\SOURCE\REPOS\TESTPE\TESTPE\STDAFX.CPP
/c /ZI /nologo /W3 /WX- /diagnostics:classic /sdl /Od /Oy- /D UNIT_TESTING /D WIN32 /D _DEBUG /D _CONSOLE /D _UNICODE /D UNICODE /Gm- /EHsc /RTC1 /MDd /GS /fp:precise /permissive- /Zc:wchar_t /Zc:forScope /Zc:inline /Yc"stdafx.h" /Fp"UNITTESTING\TESTPE.PCH" /Fo"UNITTESTING\\" /Fd"UNITTESTING\VC141.PDB" /Gd /TP /analyze- /FC C:\USERS\EEJAREI\SOURCE\REPOS\TESTPE\TESTPE\STDAFX.CPP
^C:\USERS\EEJAREI\SOURCE\REPOS\TESTPE\TESTPE\TEST.CPP
/c /ZI /nologo /W3 /WX- /diagnostics:classic /sdl /Od /Oy- /D UNIT_TESTING /D WIN32 /D _DEBUG /D _CONSOLE /D _UNICODE /D UNICODE /Gm- /EHsc /RTC1 /MDd /GS /fp:precise /permissive- /Zc:wchar_t /Zc:forScope /Zc:inline /Yu"stdafx.h" /Fp"UNITTESTING\TESTPE.PCH" /Fo"UNITTESTING\\" /Fd"UNITTESTING\VC141.PDB" /Gd /TP /analyze- /FC C:\USERS\EEJAREI\SOURCE\REPOS\TESTPE\TESTPE\TEST.CPP
^C:\USERS\EEJAREI\SOURCE\REPOS\TESTPE\TESTPE\TESTPE.CPP
/c /ZI /nologo /W3 /WX- /diagnostics:classic /sdl /Od /Oy- /D UNIT_TESTING /D WIN32 /D _DEBUG /D _CONSOLE /D _UNICODE /D UNICODE /Gm- /EHsc /RTC1 /MDd /GS /fp:precise /permissive- /Zc:wchar_t /Zc:forScope /Zc:inline /Yu"stdafx.h" /Fp"UNITTESTING\TESTPE.PCH" /Fo"UNITTESTING\\" /Fd"UNITTESTING\VC141.PDB" /Gd /TP /analyze- /FC C:\USERS\EEJAREI\SOURCE\REPOS\TESTPE\TESTPE\TESTPE.CPP
^C:\USERS\EEJAREI\SOURCE\REPOS\TESTPE\TESTPE\SOURCE.CPP
/c /ZI /nologo /W3 /WX- /diagnostics:classic /sdl /Od /Oy- /D UNIT_TESTING /D WIN32 /D _DEBUG /D _CONSOLE /D _UNICODE /D UNICODE /Gm- /EHsc /RTC1 /MDd /GS /fp:precise /permissive- /Zc:wchar_t /Zc:forScope /Zc:inline /Yu"stdafx.h" /Fp"UNITTESTING\TESTPE.PCH" /Fo"UNITTESTING\\" /Fd"UNITTESTING\VC141.PDB" /Gd /TP /analyze- /FC C:\USERS\EEJAREI\SOURCE\REPOS\TESTPE\TESTPE\SOURCE.CPP
